DESeq analiza
…
## uklanjanje redaka s nedostajućim vrijednostima
counts <- counts[complete.cases(counts), ]
dim(counts)

## [1] 63151   218

Budući da naši metapodaci sadrže informacije o svim uzorcima, a nas
trenutno zanimaju samo oni s uparenim uzorcima, najprije ćemo izdvojiti
pacijente s uparenim uzorcima:

normal_samples <- subset(metadata, condition == "N")$patient
paired_samples <- subset(metadata, patient %in% normal_samples)
paired_samples

## # A tibble: 38 × 12
##    title geo_accession   age dead  gender histology ps_who smoking stage_tnm
##    <chr> <chr>         <dbl> <fct> <fct>  <fct>     <fct>  <fct>   <fct>    
##  1 L511T GSM2142481       56 0     female 2         0      3       5        
##  2 L532T GSM2142485       69 1     female 3         1      2       1        
##  3 L561T GSM2142497       62 0     female 2         1      1       1        
##  4 L563T GSM2142498       61 1     female 1         0      1       4        
##  5 L566T GSM2142500       58 0     male   2         0      2       2        
##  6 L572T GSM2142504       58 0     male   1         1      1       1        
##  7 L606T GSM2142520       55 0     male   2         0      2       1        
##  8 L616T GSM2142525       54 1     male   2         0      1       1        
##  9 L644T GSM2142537       67 1     male   1         1      1       1        
## 10 L656T GSM2142541       58 0     male   2         0      1       1        
## # ℹ 28 more rows
## # ℹ 3 more variables: sample <chr>, patient <fct>, condition <fct>
…
